{
    "default_hs_url": "https://dev.keanu.im",
    "default_is_url": "https://dev.keanu.im",
    "disable_custom_urls": false,
    "disable_guests": false,
    "disable_login_language_selector": false,
    "disable_3pid_login": false,
    "brand": "Keanu",
    "integrations_ui_url": "",
    "integrations_rest_url": "",
    "integrations_jitsi_widget_url": "",
    "bug_report_endpoint_url": "https://riot.im/bugreports/submit",
    "features": {
        "feature_groups": "labs",
        "feature_pinning": "labs"
    },
    "default_federate": true,
    "welcomePageUrl": "home.html",
    "default_theme": "light",
    "roomDirectory": {
        "servers": [
            "dev.keanu.im"
        ]
    },
    "welcomeUserId": "@keanu-bot:dev.keanu.im",
    "piwik": false,
    "enable_presence_by_hs_url": {
        "https://matrix.org": false
    }
}
